UART/output.vcd
$date
  Fri Jan  9 11:30:14 2026
$end
$version
  GHDL v0
$end
$timescale
  1 fs
$end
$scope module standard $end
$upscope $end
$scope module textio $end
$upscope $end
$scope module std_logic_1164 $end
$upscope $end
$scope module numeric_std $end
$upscope $end
$scope module testrxunit $end
$var reg 1 ! clk $end
$var reg 1 " reset $end
$var reg 1 # enabletx $end
$var reg 1 $ enablerx $end
$var reg 1 % read $end
$var reg 8 & data[7:0] $end
$var reg 1 ' rxd $end
$var reg 1 ( ferr $end
$var reg 1 ) oerr $end
$var reg 1 * drdy $end
$scope module uut0 $end
$var reg 1 + clk $end
$var reg 1 , reset $end
$var reg 1 - enable $end
$var reg 1 . read $end
$var reg 1 / rxd $end
$var reg 8 0 data[7:0] $end
$var reg 1 1 ferr $end
$var reg 1 2 oerr $end
$var reg 1 3 drdy $end
$var reg 1 4 tmpclk $end
$var reg 1 5 tmprxd $end
$scope module compteur16inst $end
$var reg 1 6 clk $end
$var reg 1 7 enable $end
$var reg 1 8 reset $end
$var reg 1 9 rxd $end
$var reg 1 : tmpclk $end
$var reg 1 ; tmprxd $end
$comment etat is not handled $end
$var reg 1 < tmpclk_i $end
$upscope $end
$scope module controlereceptioninst $end
$var reg 1 = clk $end
$var reg 1 > reset $end
$var reg 1 ? read $end
$var reg 1 @ tmpclk $end
$var reg 1 A tmprxd $end
$var reg 1 B ferr $end
$var reg 1 C oerr $end
$var reg 1 D drdy $end
$var reg 8 E data[7:0] $end
$var reg 10 F buf[9:0] $end
$comment etat is not handled $end
$upscope $end
$upscope $end
$scope module clkunit1 $end
$var reg 1 G clk $end
$var reg 1 H reset $end
$var reg 1 I enabletx $end
$var reg 1 J enablerx $end
$var reg 1 K clkrx $end
$var reg 1 L clktx $end
$scope module diviseurclkrx $end
$var reg 1 M clk $end
$var reg 1 N reset $end
$var reg 1 O nclk $end
$var reg 1 P top $end
$upscope $end
$scope module diviseurclktx $end
$var reg 1 Q clk $end
$var reg 1 R reset $end
$var reg 1 S nclk $end
$var reg 1 T top $end
$upscope $end
$upscope $end
$upscope $end
$enddefinitions $end
#0
0!
0"
0#
0$
0%
bUUUUUUUU &
1'
0(
0)
0*
0+
0,
0-
0.
1/
bUUUUUUUU 0
01
02
03
14
U5
06
07
08
19
1:
U;
1<
0=
0>
0?
1@
UA
0B
0C
0D
bUUUUUUUU E
bUUUUUUUUUU F
0G
0H
0I
0J
UK
UL
0M
0N
0O
0P
0Q
0R
0S
0T
#5000000
1!
1+
16
1=
1G
1M
1Q
#10000000
0!
0+
06
0=
0G
0M
0Q
#15000000
1!
1+
16
1=
1G
1M
1Q
#20000000
0!
0+
06
0=
0G
0M
0Q
#25000000
1!
1+
16
1=
1G
1M
1Q
#30000000
0!
0+
06
0=
0G
0M
0Q
#35000000
1!
1+
16
1=
1G
1M
1Q
#40000000
0!
0+
06
0=
0G
0M
0Q
#45000000
1!
1+
16
1=
1G
1M
1Q
#50000000
0!
0+
06
0=
0G
0M
0Q
#55000000
1!
1+
16
1=
1G
1M
1Q
#60000000
0!
0+
06
0=
0G
0M
0Q
#65000000
1!
1+
16
1=
1G
1M
1Q
#70000000
0!
0+
06
0=
0G
0M
0Q
#75000000
1!
1+
16
1=
1G
1M
1Q
#80000000
0!
0+
06
0=
0G
0M
0Q
#85000000
1!
1+
16
1=
1G
1M
1Q
#90000000
0!
0+
06
0=
0G
0M
0Q
#95000000
1!
1+
16
1=
1G
1M
1Q
#100000000
0!
1"
0+
1,
06
18
0=
1>
0G
1H
0M
1N
0Q
1R
#105000000
1!
1+
16
1=
1G
1M
1Q
#110000000
0!
0+
06
0=
0G
0M
0Q
#115000000
1!
1+
16
1=
1G
1M
1Q
#120000000
0!
0+
06
0=
0G
0M
0Q
#125000000
1!
1+
16
1=
1G
1M
1Q
#130000000
0!
0+
06
0=
0G
0M
0Q
#135000000
1!
1+
16
1=
1G
1M
1Q
#140000000
0!
0+
06
0=
0G
0M
0Q
#145000000
1!
1+
16
1=
1G
1M
1Q
#150000000
0!
0+
06
0=
0G
0M
0Q
#155000000
1!
1+
16
1=
1G
1M
1Q
#160000000
0!
0+
06
0=
0G
0M
0Q
#165000000
1!
1+
16
1=
1G
1M
1Q
#170000000
0!
0+
06
0=
0G
0M
0Q
#175000000
1!
1+
16
1=
1G
1M
1Q
#180000000
0!
0+
06
0=
0G
0M
0Q
#185000000
1!
1+
16
1=
1G
1M
1Q
#190000000
0!
0+
06
0=
0G
0M
0Q
#195000000
1!
1$
1+
1-
16
17
1=
1G
1J
1M
1O
1Q
#200000000
0!
0+
06
0=
0G
0M
0Q
#205000000
1!
0$
1+
0-
16
07
1=
1G
0J
1M
0O
1Q
#210000000
0!
0+
06
0=
0G
0M
0Q
#215000000
1!
1+
16
1=
1G
1M
1Q
#220000000
0!
0+
06
0=
0G
0M
0Q
#225000000
1!
1+
16
1=
1G
1M
1Q
#230000000
0!
0+
06
0=
0G
0M
0Q
#235000000
1!
1+
16
1=
1G
1M
1Q
#240000000
0!
0+
06
0=
0G
0M
0Q
#245000000
1!
1+
16
1=
1G
1M
1Q
#250000000
0!
0+
06
0=
0G
0M
0Q
#255000000
1!
1+
16
1=
1G
1M
1Q
#260000000
0!
0+
06
0=
0G
0M
0Q
#265000000
1!
1+
16
1=
1G
1M
1Q
#270000000
0!
0+
06
0=
0G
0M
0Q
#275000000
1!
1+
16
1=
1G
1M
1Q
#280000000
0!
0+
06
0=
0G
0M
0Q
#285000000
1!
1+
16
1=
1G
1M
1Q
#290000000
0!
0+
06
0=
0G
0M
0Q
#295000000
1!
1$
1+
1-
16
17
1=
1G
1J
1M
1O
1Q
#300000000
0!
0+
06
0=
0G
0M
0Q
#305000000
1!
0$
1+
0-
16
07
1=
1G
0J
1M
0O
1Q
#310000000
0!
0+
06
0=
0G
0M
0Q
#315000000
1!
1+
16
1=
1G
1M
1Q
#320000000
0!
0+
06
0=
0G
0M
0Q
#325000000
1!
1+
16
1=
1G
1M
1Q
#330000000
0!
0+
06
0=
0G
0M
0Q
#335000000
1!
1+
16
1=
1G
1M
1Q
#340000000
0!
0+
06
0=
0G
0M
0Q
#345000000
1!
1+
16
1=
1G
1M
1Q
#350000000
0!
0+
06
0=
0G
0M
0Q
#355000000
1!
1+
16
1=
1G
1M
1Q
#360000000
0!
0+
06
0=
0G
0M
0Q
#365000000
1!
1+
16
1=
1G
1M
1Q
#370000000
0!
0+
06
0=
0G
0M
0Q
#375000000
1!
1+
16
1=
1G
1M
1Q
#380000000
0!
0+
06
0=
0G
0M
0Q
#385000000
1!
1+
16
1=
1G
1M
1Q
#390000000
0!
0+
06
0=
0G
0M
0Q
#395000000
1!
1$
1+
1-
16
17
1=
1G
1J
1M
1O
1Q
#400000000
0!
0+
06
0=
0G
0M
0Q
#405000000
1!
0$
1+
0-
16
07
1=
1G
0J
1M
0O
1Q
#410000000
0!
0+
06
0=
0G
0M
0Q
#415000000
1!
1+
16
1=
1G
1M
1Q
#420000000
0!
0+
06
0=
0G
0M
0Q
#425000000
1!
1+
16
1=
1G
1M
1Q
#430000000
0!
0+
06
0=
0G
0M
0Q
#435000000
1!
1+
16
1=
1G
1M
1Q
#440000000
0!
0+
06
0=
0G
0M
0Q
#445000000
1!
1+
16
1=
1G
1M
1Q
#450000000
0!
0+
06
0=
0G
0M
0Q
#455000000
1!
1+
16
1=
1G
1M
1Q
#460000000
0!
0+
06
0=
0G
0M
0Q
#465000000
1!
1+
16
1=
1G
1M
1Q
#470000000
0!
0+
06
0=
0G
0M
0Q
#475000000
1!
1+
16
1=
1G
1M
1Q
#480000000
0!
0+
06
0=
0G
0M
0Q
#485000000
1!
1+
16
1=
1G
1M
1Q
#490000000
0!
0+
06
0=
0G
0M
0Q
#495000000
1!
1$
1+
1-
16
17
1=
1G
1J
1M
1O
1Q
#500000000
0!
0+
06
0=
0G
0M
0Q
#505000000
1!
0$
1+
0-
16
07
1=
1G
0J
1M
0O
1Q
#510000000
0!
0+
06
0=
0G
0M
0Q
#515000000
1!
1+
16
1=
1G
1M
1Q
#520000000
0!
0+
06
0=
0G
0M
0Q
#525000000
1!
1+
16
1=
1G
1M
1Q
#530000000
0!
0+
06
0=
0G
0M
0Q
#535000000
1!
1+
16
1=
1G
1M
1Q
#540000000
0!
0+
06
0=
0G
0M
0Q
#545000000
1!
1+
16
1=
1G
1M
1Q
#550000000
0!
0+
06
0=
0G
0M
0Q
#555000000
1!
1+
16
1=
1G
1M
1Q
#560000000
0!
0+
06
0=
0G
0M
0Q
#565000000
1!
1+
16
1=
1G
1M
1Q
#570000000
0!
0+
06
0=
0G
0M
0Q
#575000000
1!
1+
16
1=
1G
1M
1Q
#580000000
0!
0+
06
0=
0G
0M
0Q
#585000000
1!
1+
16
1=
1G
1M
1Q
#590000000
0!
0+
06
0=
0G
0M
0Q
#595000000
1!
1$
1+
1-
16
17
1=
1G
1J
1M
1O
1Q
#600000000
0!
0+
06
0=
0G
0M
0Q
#605000000
1!
0$
1+
0-
16
07
1=
1G
0J
1M
0O
1Q
#610000000
0!
0+
06
0=
0G
0M
0Q
#615000000
1!
1+
16
1=
1G
1M
1Q
#620000000
0!
0+
06
0=
0G
0M
0Q
#625000000
1!
1+
16
1=
1G
1M
1Q
#630000000
0!
0+
06
0=
0G
0M
0Q
#635000000
1!
1+
16
1=
1G
1M
1Q
#640000000
0!
0+
06
0=
0G
0M
0Q
#645000000
1!
1+
16
1=
1G
1M
1Q
#650000000
0!
0+
06
0=
0G
0M
0Q
#655000000
1!
1+
16
1=
1G
1M
1Q
#660000000
0!
0+
06
0=
0G
0M
0Q
#665000000
1!
1+
16
1=
1G
1M
1Q
#670000000
0!
0+
06
0=
0G
0M
0Q
#675000000
1!
1+
16
1=
1G
1M
1Q
#680000000
0!
0+
06
0=
0G
0M
0Q
#685000000
1!
1+
16
1=
1G
1M
1Q
#690000000
0!
0+
06
0=
0G
0M
0Q
#695000000
1!
1$
1+
1-
16
17
1=
1G
1J
1M
1O
1Q
#700000000
0!
0+
06
0=
0G
0M
0Q
#705000000
1!
0$
1+
0-
16
07
1=
1G
0J
1M
0O
1Q
#710000000
0!
0+
06
0=
0G
0M
0Q
#715000000
1!
1+
16
1=
1G
1M
1Q
#720000000
0!
0+
06
0=
0G
0M
0Q
#725000000
1!
1+
16
1=
1G
1M
1Q
#730000000
0!
0+
06
0=
0G
0M
0Q
#735000000
1!
1+
16
1=
1G
1M
1Q
#740000000
0!
0+
06
0=
0G
0M
0Q
#745000000
1!
1+
16
1=
1G
1M
1Q
#750000000
0!
0+
06
0=
0G
0M
0Q
#755000000
1!
1+
16
1=
1G
1M
1Q
#760000000
0!
0+
06
0=
0G
0M
0Q
#765000000
1!
1+
16
1=
1G
1M
1Q
#770000000
0!
0+
06
0=
0G
0M
0Q
#775000000
1!
1+
16
1=
1G
1M
1Q
#780000000
0!
0+
06
0=
0G
0M
0Q
#785000000
1!
1+
16
1=
1G
1M
1Q
#790000000
0!
0+
06
0=
0G
0M
0Q
#795000000
1!
1$
1+
1-
16
17
1=
1G
1J
1M
1O
1Q
#800000000
0!
0+
06
0=
0G
0M
0Q
#805000000
1!
0$
1+
0-
16
07
1=
1G
0J
1M
0O
1Q
#810000000
0!
0+
06
0=
0G
0M
0Q
#815000000
1!
1+
16
1=
1G
1M
1Q
#820000000
0!
0+
06
0=
0G
0M
0Q
#825000000
1!
1+
16
1=
1G
1M
1Q
#830000000
0!
0+
06
0=
0G
0M
0Q
#835000000
1!
1+
16
1=
1G
1M
1Q
#840000000
0!
0+
06
0=
0G
0M
0Q
#845000000
1!
1+
16
1=
1G
1M
1Q
#850000000
0!
0+
06
0=
0G
0M
0Q
#855000000
1!
1+
16
1=
1G
1M
1Q
#860000000
0!
0+
06
0=
0G
0M
0Q
#865000000
1!
1+
16
1=
1G
1M
1Q
#870000000
0!
0+
06
0=
0G
0M
0Q
#875000000
1!
1+
16
1=
1G
1M
1Q
#880000000
0!
0+
06
0=
0G
0M
0Q
#885000000
1!
1+
16
1=
1G
1M
1Q
#890000000
0!
0+
06
0=
0G
0M
0Q
#895000000
1!
1$
1+
1-
16
17
1=
1G
1J
1M
1O
1Q
#900000000
0!
0+
06
0=
0G
0M
0Q
#905000000
1!
0$
1+
0-
16
07
1=
1G
0J
1M
0O
1Q
#910000000
0!
0+
06
0=
0G
0M
0Q
#915000000
1!
1+
16
1=
1G
1M
1Q
#920000000
0!
0+
06
0=
0G
0M
0Q
#925000000
1!
1+
16
1=
1G
1M
1Q
#930000000
0!
0+
06
0=
0G
0M
0Q
#935000000
1!
1+
16
1=
1G
1M
1Q
#940000000
0!
0+
06
0=
0G
0M
0Q
#945000000
1!
1+
16
1=
1G
1M
1Q
#950000000
0!
0+
06
0=
0G
0M
0Q
#955000000
1!
1+
16
1=
1G
1M
1Q
#960000000
0!
0+
06
0=
0G
0M
0Q
#965000000
1!
1+
16
1=
1G
1M
1Q
#970000000
0!
0+
06
0=
0G
0M
0Q
#975000000
1!
1+
16
1=
1G
1M
1Q
#980000000
0!
0+
06
0=
0G
0M
0Q
#985000000
1!
1+
16
1=
1G
1M
1Q
#990000000
0!
0+
06
0=
0G
0M
0Q
#995000000
1!
1$
1+
1-
16
17
1=
1G
1J
1M
1O
1Q
#1000000000
0!
0+
06
0=
0G
0M
0Q
#1005000000
1!
0$
1+
0-
16
07
1=
1G
0J
1M
0O
1Q
#1010000000
0!
0+
06
0=
0G
0M
0Q
#1015000000
1!
1+
16
1=
1G
1M
1Q
#1020000000
0!
0+
06
0=
0G
0M
0Q
#1025000000
1!
1+
16
1=
1G
1M
1Q
#1030000000
0!
0+
06
0=
0G
0M
0Q
#1035000000
1!
1+
16
1=
1G
1M
1Q
#1040000000
0!
0+
06
0=
0G
0M
0Q
#1045000000
1!
1+
16
1=
1G
1M
1Q
#1050000000
0!
0+
06
0=
0G
0M
0Q
#1055000000
1!
1+
16
1=
1G
1M
1Q
#1060000000
0!
0+
06
0=
0G
0M
0Q
#1065000000
1!
1+
16
1=
1G
1M
1Q
#1070000000
0!
0+
06
0=
0G
0M
0Q
#1075000000
1!
1+
16
1=
1G
1M
1Q
#1080000000
0!
0+
06
0=
0G
0M
0Q
#1085000000
1!
1+
16
1=
1G
1M
1Q
#1090000000
0!
0+
06
0=
0G
0M
0Q
#1095000000
1!
1$
1+
1-
16
17
1=
1G
1J
1M
1O
1Q
#1100000000
0!
0+
06
0=
0G
0M
0Q
#1105000000
1!
0$
1+
0-
16
07
1=
1G
0J
1M
0O
1Q
#1110000000
0!
0+
06
0=
0G
0M
0Q
#1115000000
1!
1+
16
1=
1G
1M
1Q
#1120000000
0!
0+
06
0=
0G
0M
0Q
#1125000000
1!
1+
16
1=
1G
1M
1Q
#1130000000
0!
0+
06
0=
0G
0M
0Q
#1135000000
1!
1+
16
1=
1G
1M
1Q
#1140000000
0!
0+
06
0=
0G
0M
0Q
#1145000000
1!
1+
16
1=
1G
1M
1Q
#1150000000
0!
0+
06
0=
0G
0M
0Q
#1155000000
1!
1+
16
1=
1G
1M
1Q
#1160000000
0!
0+
06
0=
0G
0M
0Q
#1165000000
1!
1+
16
1=
1G
1M
1Q
#1170000000
0!
0+
06
0=
0G
0M
0Q
#1175000000
1!
1+
16
1=
1G
1M
1Q
#1180000000
0!
0+
06
0=
0G
0M
0Q
#1185000000
1!
1+
16
1=
1G
1M
1Q
#1190000000
0!
0+
06
0=
0G
0M
0Q
#1195000000
1!
1$
1+
1-
16
17
1=
1G
1J
1M
1O
1Q
#1200000000
0!
0+
06
0=
0G
0M
0Q
#1205000000
1!
0$
1+
0-
16
07
1=
1G
0J
1M
0O
1Q
#1210000000
0!
0+
06
0=
0G
0M
0Q
#1215000000
1!
1+
16
1=
1G
1M
1Q
#1220000000
0!
0+
06
0=
0G
0M
0Q
#1225000000
1!
1+
16
1=
1G
1M
1Q
#1230000000
0!
0+
06
0=
0G
0M
0Q
#1235000000
1!
1+
16
1=
1G
1M
1Q
#1240000000
0!
0+
06
0=
0G
0M
0Q
#1245000000
1!
1+
16
1=
1G
1M
1Q
#1250000000
0!
0+
06
0=
0G
0M
0Q
#1255000000
1!
1+
16
1=
1G
1M
1Q
#1260000000
0!
0+
06
0=
0G
0M
0Q
#1265000000
1!
1+
16
1=
1G
1M
1Q
#1270000000
0!
0+
06
0=
0G
0M
0Q
#1275000000
1!
1+
16
1=
1G
1M
1Q
#1280000000
0!
0+
06
0=
0G
0M
0Q
#1285000000
1!
1+
16
1=
1G
1M
1Q
#1290000000
0!
0+
06
0=
0G
0M
0Q
#1295000000
1!
1$
1+
1-
16
17
1=
1G
1J
1M
1O
1Q
#1300000000
0!
0+
06
0=
0G
0M
0Q
#1305000000
1!
0$
1+
0-
16
07
1=
1G
0J
1M
0O
1Q
#1310000000
0!
0+
06
0=
0G
0M
0Q
#1315000000
1!
1+
16
1=
1G
1M
1Q
#1320000000
0!
0+
06
0=
0G
0M
0Q
#1325000000
1!
1+
16
1=
1G
1M
1Q
#1330000000
0!
0+
06
0=
0G
0M
0Q
#1335000000
1!
1+
16
1=
1G
1M
1Q
#1340000000
0!
0+
06
0=
0G
0M
0Q
#1345000000
1!
1+
16
1=
1G
1M
1Q
#1350000000
0!
0+
06
0=
0G
0M
0Q
#1355000000
1!
1+
16
1=
1G
1M
1Q
#1360000000
0!
0+
06
0=
0G
0M
0Q
#1365000000
1!
1+
16
1=
1G
1M
1Q
#1370000000
0!
0+
06
0=
0G
0M
0Q
#1375000000
1!
1+
16
1=
1G
1M
1Q
#1380000000
0!
0+
06
0=
0G
0M
0Q
#1385000000
1!
1+
16
1=
1G
1M
1Q
#1390000000
0!
0+
06
0=
0G
0M
0Q
#1395000000
1!
1$
1+
1-
16
17
1=
1G
1J
1M
1O
1Q
#1400000000
0!
0+
06
0=
0G
0M
0Q
#1405000000
1!
0$
1+
0-
16
07
1=
1G
0J
1M
0O
1Q
#1410000000
0!
0+
06
0=
0G
0M
0Q
#1415000000
1!
1+
16
1=
1G
1M
1Q
#1420000000
0!
0+
06
0=
0G
0M
0Q
#1425000000
1!
1+
16
1=
1G
1M
1Q
#1430000000
0!
0+
06
0=
0G
0M
0Q
#1435000000
1!
1+
16
1=
1G
1M
1Q
#1440000000
0!
0+
06
0=
0G
0M
0Q
#1445000000
1!
1+
16
1=
1G
1M
1Q
#1450000000
0!
0+
06
0=
0G
0M
0Q
#1455000000
1!
1+
16
1=
1G
1M
1Q
#1460000000
0!
0+
06
0=
0G
0M
0Q
#1465000000
1!
1+
16
1=
1G
1M
1Q
#1470000000
0!
0+
06
0=
0G
0M
0Q
#1475000000
1!
1+
16
1=
1G
1M
1Q
#1480000000
0!
0+
06
0=
0G
0M
0Q
#1485000000
1!
1+
16
1=
1G
1M
1Q
#1490000000
0!
0+
06
0=
0G
0M
0Q
#1495000000
1!
1$
1+
1-
16
17
1=
1G
1J
1M
1O
1Q
#1500000000
0!
0+
06
0=
0G
0M
0Q
#1505000000
1!
0$
1+
0-
16
07
1=
1G
0J
1M
0O
1Q
#1510000000
0!
0+
06
0=
0G
0M
0Q
#1515000000
1!
1+
16
1=
1G
1M
1Q
#1520000000
0!
0+
06
0=
0G
0M
0Q
#1525000000
1!
1+
16
1=
1G
1M
1Q
#1530000000
0!
0+
06
0=
0G
0M
0Q
#1535000000
1!
1+
16
1=
1G
1M
1Q
#1540000000
0!
0+
06
0=
0G
0M
0Q
#1545000000
1!
1+
16
1=
1G
1M
1Q
#1550000000
0!
0+
06
0=
0G
0M
0Q
#1555000000
1!
1+
16
1=
1G
1M
1Q
#1560000000
0!
0+
06
0=
0G
0M
0Q
#1565000000
1!
1+
16
1=
1G
1M
1Q
#1570000000
0!
0+
06
0=
0G
0M
0Q
#1575000000
1!
1+
16
1=
1G
1M
1Q
#1580000000
0!
0+
06
0=
0G
0M
0Q
#1585000000
1!
1+
16
1=
1G
1M
1Q
#1590000000
0!
0+
06
0=
0G
0M
0Q
#1595000000
1!
1$
1+
1-
16
17
1=
1G
1J
1M
1O
1Q
#1600000000
0!
0+
06
0=
0G
0M
0Q
#1605000000
1!
0$
1+
0-
16
07
1=
1G
0J
1M
0O
1Q
#1610000000
0!
0+
06
0=
0G
0M
0Q
#1615000000
1!
1+
16
1=
1G
1M
1Q
#1620000000
0!
0+
06
0=
0G
0M
0Q
#1625000000
1!
1+
16
1=
1G
1M
1Q
#1630000000
0!
0+
06
0=
0G
0M
0Q
#1635000000
1!
1+
16
1=
1G
1M
1Q
#1640000000
0!
0+
06
0=
0G
0M
0Q
#1645000000
1!
1+
16
1=
1G
1M
1Q
#1650000000
0!
0+
06
0=
0G
0M
0Q
#1655000000
1!
1+
16
1=
1G
1M
1Q
#1660000000
0!
0+
06
0=
0G
0M
0Q
#1665000000
1!
1+
16
1=
1G
1M
1Q
#1670000000
0!
0+
06
0=
0G
0M
0Q
#1675000000
1!
1+
16
1=
1G
1M
1Q
#1680000000
0!
0+
06
0=
0G
0M
0Q
#1685000000
1!
1+
16
1=
1G
1M
1Q
#1690000000
0!
0+
06
0=
0G
0M
0Q
#1695000000
1!
1#
1$
0'
1+
1-
0/
16
17
09
1=
1G
1I
1J
1M
1O
1Q
1S
#1700000000
0!
0+
06
0=
0G
0M
0Q
#1705000000
1!
0#
0$
1+
0-
16
07
1=
1G
0I
0J
1M
0O
1Q
0S
#1710000000
0!
0+
06
0=
0G
0M
0Q
#1715000000
1!
1+
04
16
0:
0<
1=
0@
1G
1M
1Q
#1720000000
0!
0+
06
0=
0G
0M
0Q
#1725000000
1!
1+
16
1=
1G
1M
1Q
#1730000000
0!
0+
06
0=
0G
0M
0Q
#1735000000
1!
1+
16
1=
1G
1M
1Q
#1740000000
0!
0+
06
0=
0G
0M
0Q
#1745000000
1!
1+
16
1=
1G
1M
1Q
#1750000000
0!
0+
06
0=
0G
0M
0Q
#1755000000
1!
1+
16
1=
1G
1M
1Q
#1760000000
0!
0+
06
0=
0G
0M
0Q
#1765000000
1!
1+
16
1=
1G
1M
1Q
#1770000000
0!
0+
06
0=
0G
0M
0Q
#1775000000
1!
1+
16
1=
1G
1M
1Q
#1780000000
0!
0+
06
0=
0G
0M
0Q
#1785000000
1!
1+
16
1=
1G
1M
1Q
#1790000000
0!
0+
06
0=
0G
0M
0Q
#1795000000
1!
1$
1+
1-
16
17
1=
1G
1J
1M
1O
1Q
#1800000000
0!
0+
06
0=
0G
0M
0Q
#1805000000
1!
0$
1+
0-
16
07
1=
1G
0J
1M
0O
1Q
#1810000000
0!
0+
06
0=
0G
0M
0Q
#1815000000
1!
1+
16
1=
1G
1M
1Q
#1820000000
0!
0+
06
0=
0G
0M
0Q
#1825000000
1!
1+
16
1=
1G
1M
1Q
#1830000000
0!
0+
06
0=
0G
0M
0Q
#1835000000
1!
1+
16
1=
1G
1M
1Q
#1840000000
0!
0+
06
0=
0G
0M
0Q
#1845000000
1!
1+
16
1=
1G
1M
1Q
#1850000000
0!
0+
06
0=
0G
0M
0Q
#1855000000
1!
1+
16
1=
1G
1M
1Q
#1860000000
0!
0+
06
0=
0G
0M
0Q
#1865000000
1!
1+
16
1=
1G
1M
1Q
#1870000000
0!
0+
06
0=
0G
0M
0Q
#1875000000
1!
1+
16
1=
1G
1M
1Q
#1880000000
0!
0+
06
0=
0G
0M
0Q
#1885000000
1!
1+
16
1=
1G
1M
1Q
#1890000000
0!
0+
06
0=
0G
0M
0Q
#1895000000
1!
1$
1+
1-
16
17
1=
1G
1J
1M
1O
1Q
#1900000000
0!
0+
06
0=
0G
0M
0Q
#1905000000
1!
0$
1+
0-
16
07
1=
1G
0J
1M
0O
1Q
#1910000000
0!
0+
06
0=
0G
0M
0Q
#1915000000
1!
1+
16
1=
1G
1M
1Q
#1920000000
0!
0+
06
0=
0G
0M
0Q
#1925000000
1!
1+
16
1=
1G
1M
1Q
#1930000000
0!
0+
06
0=
0G
0M
0Q
#1935000000
1!
1+
16
1=
1G
1M
1Q
#1940000000
0!
0+
06
0=
0G
0M
0Q
#1945000000
1!
1+
16
1=
1G
1M
1Q
#1950000000
0!
0+
06
0=
0G
0M
0Q
#1955000000
1!
1+
16
1=
1G
1M
1Q
#1960000000
0!
0+
06
0=
0G
0M
0Q
#1965000000
1!
1+
16
1=
1G
1M
1Q
#1970000000
0!
0+
06
0=
0G
0M
0Q
#1975000000
1!
1+
16
1=
1G
1M
1Q
#1980000000
0!
0+
06
0=
0G
0M
0Q
#1985000000
1!
1+
16
1=
1G
1M
1Q
#1990000000
0!
0+
06
0=
0G
0M
0Q
#1995000000
1!
1$
1+
1-
16
17
1=
1G
1J
1M
1O
1Q
#2000000000
0!
0+
06
0=
0G
0M
0Q
#2005000000
1!
0$
1+
0-
16
07
1=
1G
0J
1M
0O
1Q
#2010000000
0!
0+
06
0=
0G
0M
0Q
#2015000000
1!
1+
16
1=
1G
1M
1Q
#2020000000
0!
0+
06
0=
0G
0M
0Q
#2025000000
1!
1+
16
1=
1G
1M
1Q
#2030000000
0!
0+
06
0=
0G
0M
0Q
#2035000000
1!
1+
16
1=
1G
1M
1Q
#2040000000
0!
0+
06
0=
0G
0M
0Q
#2045000000
1!
1+
16
1=
1G
1M
1Q
#2050000000
0!
0+
06
0=
0G
0M
0Q
#2055000000
1!
1+
16
1=
1G
1M
1Q
#2060000000
0!
0+
06
0=
0G
0M
0Q
#2065000000
1!
1+
16
1=
1G
1M
1Q
#2070000000
0!
0+
06
0=
0G
0M
0Q
#2075000000
1!
1+
16
1=
1G
1M
1Q
#2080000000
0!
0+
06
0=
0G
0M
0Q
#2085000000
1!
1+
16
1=
1G
1M
1Q
#2090000000
0!
0+
06
0=
0G
0M
0Q
#2095000000
1!
1$
1+
1-
16
17
1=
1G
1J
1M
1O
1Q
#2100000000
0!
0+
06
0=
0G
0M
0Q
#2105000000
1!
0$
1+
0-
16
07
1=
1G
0J
1M
0O
1Q
#2110000000
0!
0+
06
0=
0G
0M
0Q
#2115000000
1!
1+
16
1=
1G
1M
1Q
#2120000000
0!
0+
06
0=
0G
0M
0Q
#2125000000
1!
1+
16
1=
1G
1M
1Q
#2130000000
0!
0+
06
0=
0G
0M
0Q
#2135000000
1!
1+
16
1=
1G
1M
1Q
#2140000000
0!
0+
06
0=
0G
0M
0Q
#2145000000
1!
1+
16
1=
1G
1M
1Q
#2150000000
0!
0+
06
0=
0G
0M
0Q
#2155000000
1!
1+
16
1=
1G
1M
1Q
#2160000000
0!
0+
06
0=
0G
0M
0Q
#2165000000
1!
1+
16
1=
1G
1M
1Q
#2170000000
0!
0+
06
0=
0G
0M
0Q
#2175000000
1!
1+
16
1=
1G
1M
1Q
#2180000000
0!
0+
06
0=
0G
0M
0Q
#2185000000
1!
1+
16
1=
1G
1M
1Q
#2190000000
0!
0+
06
0=
0G
0M
0Q
#2195000000
1!
1$
1+
1-
16
17
1=
1G
1J
1M
1O
1Q
#2200000000
0!
0+
06
0=
0G
0M
0Q
#2205000000
1!
0$
1+
0-
16
07
1=
1G
0J
1M
0O
1Q
#2210000000
0!
0+
06
0=
0G
0M
0Q
#2215000000
1!
1+
16
1=
1G
1M
1Q
#2220000000
0!
0+
06
0=
0G
0M
0Q
#2225000000
1!
1+
16
1=
1G
1M
1Q
#2230000000
0!
0+
06
0=
0G
0M
0Q
#2235000000
1!
1+
16
1=
1G
1M
1Q
#2240000000
0!
0+
06
0=
0G
0M
0Q
#2245000000
1!
1+
16
1=
1G
1M
1Q
#2250000000
0!
0+
06
0=
0G
0M
0Q
#2255000000
1!
1+
16
1=
1G
1M
1Q
#2260000000
0!
0+
06
0=
0G
0M
0Q
#2265000000
1!
1+
16
1=
1G
1M
1Q
#2270000000
0!
0+
06
0=
0G
0M
0Q
#2275000000
1!
1+
16
1=
1G
1M
1Q
#2280000000
0!
0+
06
0=
0G
0M
0Q
#2285000000
1!
1+
16
1=
1G
1M
1Q
#2290000000
0!
0+
06
0=
0G
0M
0Q
#2295000000
1!
1$
1+
1-
16
17
1=
1G
1J
1M
1O
1Q
#2300000000
0!
0+
06
0=
0G
0M
0Q
#2305000000
1!
0$
1+
0-
16
07
1=
1G
0J
1M
0O
1Q
#2310000000
0!
0+
06
0=
0G
0M
0Q
#2315000000
1!
1+
16
1=
1G
1M
1Q
#2320000000
0!
0+
06
0=
0G
0M
0Q
#2325000000
1!
1+
16
1=
1G
1M
1Q
#2330000000
0!
0+
06
0=
0G
0M
0Q
#2335000000
1!
1+
16
1=
1G
1M
1Q
#2340000000
0!
0+
06
0=
0G
0M
0Q
#2345000000
1!
1+
16
1=
1G
1M
1Q
#2350000000
0!
0+
06
0=
0G
0M
0Q
#2355000000
1!
1+
16
1=
1G
1M
1Q
#2360000000
0!
0+
06
0=
0G
0M
0Q
#2365000000
1!
1+
16
1=
1G
1M
1Q
#2370000000
0!
0+
06
0=
0G
0M
0Q
#2375000000
1!
1+
16
1=
1G
1M
1Q
#2380000000
0!
0+
06
0=
0G
0M
0Q
#2385000000
1!
1+
16
1=
1G
1M
1Q
#2390000000
0!
0+
06
0=
0G
0M
0Q
#2395000000
1!
1$
1+
1-
16
17
1=
1G
1J
1M
1O
1Q
#2400000000
0!
0+
06
0=
0G
0M
0Q
#2405000000
1!
0$
1+
0-
16
07
1=
1G
0J
1M
0O
1Q
#2410000000
0!
0+
06
0=
0G
0M
0Q
#2415000000
1!
1+
16
1=
1G
1M
1Q
#2420000000
0!
0+
06
0=
0G
0M
0Q
#2425000000
1!
1+
16
1=
1G
1M
1Q
#2430000000
0!
0+
06
0=
0G
0M
0Q
#2435000000
1!
1+
16
1=
1G
1M
1Q
#2440000000
0!
0+
06
0=
0G
0M
0Q
#2445000000
1!
1+
16
1=
1G
1M
1Q
#2450000000
0!
0+
06
0=
0G
0M
0Q
